<session jtag_chain="USB-Blaster(Altera) [3-1.2.2]" jtag_device="@1: 10CL006(Y|Z)/10CL010(Y|Z)/.. (0x020F10DD)" sof_file="">
  <display_tree gui_logging_enabled="0">
    <display_branch instance="auto_signaltap_0" log="USE_GLOBAL_TEMP" signal_set="USE_GLOBAL_TEMP" trigger="USE_GLOBAL_TEMP"/>
  </display_tree>
  <instance enabled="true" entity_name="sld_signaltap" is_auto_node="yes" is_expanded="true" name="auto_signaltap_0" source_file="sld_signaltap.vhd">
    <node_ip_info instance_id="0" mfg_id="110" node_id="0" version="6"/>
    <signal_set global_temp="1" is_expanded="true" name="signal_set: 2018/05/21 11:23:36  #0">
      <clock name="i_clk" polarity="posedge" tap_mode="probeonly"/>
      <config pipeline_level="0" ram_type="AUTO" reserved_data_nodes="0" reserved_storage_qualifier_nodes="0" reserved_trigger_nodes="0" sample_depth="256" trigger_in_enable="no" trigger_out_enable="no"/>
      <top_entity/>
      <signal_vec>
        <trigger_input_vec>
          <wire name="BTN_MATRIX:inst23|dataOut[2]~0" tap_mode="probeonly"/>
          <wire name="BTN_MATRIX:inst23|dataOut[2]~1" tap_mode="probeonly"/>
          <wire name="BTN_MATRIX:inst23|dataOut[2]~2" tap_mode="probeonly"/>
          <wire name="BTN_MATRIX:inst23|dataOut[2]~3" tap_mode="probeonly"/>
        </trigger_input_vec>
        <data_input_vec>
          <wire name="BTN_MATRIX:inst23|dataOut[2]~0" tap_mode="probeonly"/>
          <wire name="BTN_MATRIX:inst23|dataOut[2]~1" tap_mode="probeonly"/>
          <wire name="BTN_MATRIX:inst23|dataOut[2]~2" tap_mode="probeonly"/>
          <wire name="BTN_MATRIX:inst23|dataOut[2]~3" tap_mode="probeonly"/>
        </data_input_vec>
        <storage_qualifier_input_vec>
          <wire name="BTN_MATRIX:inst23|dataOut[2]~0" tap_mode="probeonly"/>
          <wire name="BTN_MATRIX:inst23|dataOut[2]~1" tap_mode="probeonly"/>
          <wire name="BTN_MATRIX:inst23|dataOut[2]~2" tap_mode="probeonly"/>
          <wire name="BTN_MATRIX:inst23|dataOut[2]~3" tap_mode="probeonly"/>
        </storage_qualifier_input_vec>
      </signal_vec>
      <presentation>
        <unified_setup_data_view>
          <node data_index="0" duplicate_name_allowed="false" is_data_input="true" is_node_valid="true" is_selected="false" is_storage_input="true" is_trigger_input="true" level-0="dont_care" name="BTN_MATRIX:inst23|dataOut[2]~0" pwr_level-0="dont_care" pwr_storage-0="dont_care" pwr_storage-1="dont_care" pwr_storage-2="dont_care" storage-0="dont_care" storage-1="dont_care" storage-2="dont_care" storage_index="0" tap_mode="probeonly" trigger_index="0" type="unknown"/>
          <node data_index="1" duplicate_name_allowed="false" is_data_input="true" is_node_valid="true" is_selected="false" is_storage_input="true" is_trigger_input="true" level-0="dont_care" name="BTN_MATRIX:inst23|dataOut[2]~1" pwr_level-0="dont_care" pwr_storage-0="dont_care" pwr_storage-1="dont_care" pwr_storage-2="dont_care" storage-0="dont_care" storage-1="dont_care" storage-2="dont_care" storage_index="1" tap_mode="probeonly" trigger_index="1" type="unknown"/>
          <node data_index="2" duplicate_name_allowed="false" is_data_input="true" is_node_valid="true" is_selected="false" is_storage_input="true" is_trigger_input="true" level-0="dont_care" name="BTN_MATRIX:inst23|dataOut[2]~2" pwr_level-0="dont_care" pwr_storage-0="dont_care" pwr_storage-1="dont_care" pwr_storage-2="dont_care" storage-0="dont_care" storage-1="dont_care" storage-2="dont_care" storage_index="2" tap_mode="probeonly" trigger_index="2" type="unknown"/>
          <node data_index="3" duplicate_name_allowed="false" is_data_input="true" is_node_valid="true" is_selected="false" is_storage_input="true" is_trigger_input="true" level-0="dont_care" name="BTN_MATRIX:inst23|dataOut[2]~3" pwr_level-0="dont_care" pwr_storage-0="dont_care" pwr_storage-1="dont_care" pwr_storage-2="dont_care" storage-0="dont_care" storage-1="dont_care" storage-2="dont_care" storage_index="3" tap_mode="probeonly" trigger_index="3" type="unknown"/>
        </unified_setup_data_view>
        <data_view>
          <net data_index="0" duplicate_name_allowed="false" is_data_input="true" is_node_valid="true" is_selected="false" is_storage_input="true" is_trigger_input="true" level-0="dont_care" name="BTN_MATRIX:inst23|dataOut[2]~0" pwr_level-0="dont_care" pwr_storage-0="dont_care" pwr_storage-1="dont_care" pwr_storage-2="dont_care" storage-0="dont_care" storage-1="dont_care" storage-2="dont_care" storage_index="0" tap_mode="probeonly" trigger_index="0" type="unknown"/>
          <net data_index="1" duplicate_name_allowed="false" is_data_input="true" is_node_valid="true" is_selected="false" is_storage_input="true" is_trigger_input="true" level-0="dont_care" name="BTN_MATRIX:inst23|dataOut[2]~1" pwr_level-0="dont_care" pwr_storage-0="dont_care" pwr_storage-1="dont_care" pwr_storage-2="dont_care" storage-0="dont_care" storage-1="dont_care" storage-2="dont_care" storage_index="1" tap_mode="probeonly" trigger_index="1" type="unknown"/>
          <net data_index="2" duplicate_name_allowed="false" is_data_input="true" is_node_valid="true" is_selected="false" is_storage_input="true" is_trigger_input="true" level-0="dont_care" name="BTN_MATRIX:inst23|dataOut[2]~2" pwr_level-0="dont_care" pwr_storage-0="dont_care" pwr_storage-1="dont_care" pwr_storage-2="dont_care" storage-0="dont_care" storage-1="dont_care" storage-2="dont_care" storage_index="2" tap_mode="probeonly" trigger_index="2" type="unknown"/>
          <net data_index="3" duplicate_name_allowed="false" is_data_input="true" is_node_valid="true" is_selected="false" is_storage_input="true" is_trigger_input="true" level-0="dont_care" name="BTN_MATRIX:inst23|dataOut[2]~3" pwr_level-0="dont_care" pwr_storage-0="dont_care" pwr_storage-1="dont_care" pwr_storage-2="dont_care" storage-0="dont_care" storage-1="dont_care" storage-2="dont_care" storage_index="3" tap_mode="probeonly" trigger_index="3" type="unknown"/>
        </data_view>
        <setup_view>
          <net data_index="0" duplicate_name_allowed="false" is_data_input="true" is_node_valid="true" is_selected="false" is_storage_input="true" is_trigger_input="true" level-0="dont_care" name="BTN_MATRIX:inst23|dataOut[2]~0" pwr_level-0="dont_care" pwr_storage-0="dont_care" pwr_storage-1="dont_care" pwr_storage-2="dont_care" storage-0="dont_care" storage-1="dont_care" storage-2="dont_care" storage_index="0" tap_mode="probeonly" trigger_index="0" type="unknown"/>
          <net data_index="1" duplicate_name_allowed="false" is_data_input="true" is_node_valid="true" is_selected="false" is_storage_input="true" is_trigger_input="true" level-0="dont_care" name="BTN_MATRIX:inst23|dataOut[2]~1" pwr_level-0="dont_care" pwr_storage-0="dont_care" pwr_storage-1="dont_care" pwr_storage-2="dont_care" storage-0="dont_care" storage-1="dont_care" storage-2="dont_care" storage_index="1" tap_mode="probeonly" trigger_index="1" type="unknown"/>
          <net data_index="2" duplicate_name_allowed="false" is_data_input="true" is_node_valid="true" is_selected="false" is_storage_input="true" is_trigger_input="true" level-0="dont_care" name="BTN_MATRIX:inst23|dataOut[2]~2" pwr_level-0="dont_care" pwr_storage-0="dont_care" pwr_storage-1="dont_care" pwr_storage-2="dont_care" storage-0="dont_care" storage-1="dont_care" storage-2="dont_care" storage_index="2" tap_mode="probeonly" trigger_index="2" type="unknown"/>
          <net data_index="3" duplicate_name_allowed="false" is_data_input="true" is_node_valid="true" is_selected="false" is_storage_input="true" is_trigger_input="true" level-0="dont_care" name="BTN_MATRIX:inst23|dataOut[2]~3" pwr_level-0="dont_care" pwr_storage-0="dont_care" pwr_storage-1="dont_care" pwr_storage-2="dont_care" storage-0="dont_care" storage-1="dont_care" storage-2="dont_care" storage_index="3" tap_mode="probeonly" trigger_index="3" type="unknown"/>
        </setup_view>
        <trigger_in_editor/>
        <trigger_out_editor/>
      </presentation>
      <trigger CRC="1B789C11" attribute_mem_mode="false" gap_record="true" global_temp="1" is_expanded="true" name="trigger: 2018/05/21 11:23:36  #1" position="pre" power_up_trigger_mode="false" record_data_gap="true" segment_size="256" storage_mode="transitional" storage_qualifier_disabled="no" storage_qualifier_port_is_pin="false" storage_qualifier_port_name="auto_stp_external_storage_qualifier" storage_qualifier_port_tap_mode="classic" trigger_type="circular">
        <power_up_trigger position="pre" storage_qualifier_disabled="no"/>
        <events use_custom_flow_control="no">
          <level enabled="yes" name="condition1" type="basic">
            <power_up enabled="yes">
            </power_up><op_node/>
          </level>
        </events>
        <storage_qualifier_events>
          <transitional>1111
            <pwr_up_transitional>1111</pwr_up_transitional>
          </transitional>
          <storage_qualifier_level type="basic">
            <power_up>
            </power_up>
            <op_node/>
          </storage_qualifier_level>
          <storage_qualifier_level type="basic">
            <power_up>
            </power_up>
            <op_node/>
          </storage_qualifier_level>
          <storage_qualifier_level type="basic">
            <power_up>
            </power_up>
            <op_node/>
          </storage_qualifier_level>
        </storage_qualifier_events>
      </trigger>
    </signal_set>
    <position_info>
      <single attribute="active tab" value="1"/>
      <single attribute="data horizontal scroll position" value="0"/>
      <single attribute="data vertical scroll position" value="0"/>
      <single attribute="setup horizontal scroll position" value="0"/>
      <single attribute="setup vertical scroll position" value="0"/>
      <single attribute="zoom level denominator" value="1"/>
      <single attribute="zoom level numerator" value="1"/>
      <single attribute="zoom offset denominator" value="1"/>
      <single attribute="zoom offset numerator" value="130816"/>
    </position_info>
  </instance>
  <mnemonics/>
  <static_plugin_mnemonics/>
  <global_info>
    <single attribute="active instance" value="0"/>
    <single attribute="config widget visible" value="1"/>
    <single attribute="data log widget visible" value="1"/>
    <single attribute="hierarchy widget visible" value="1"/>
    <single attribute="instance widget visible" value="1"/>
    <single attribute="jtag widget visible" value="1"/>
    <single attribute="lock mode" value="0"/>
    <single attribute="sof manager visible" value="0"/>
    <multi attribute="frame size" size="2" value="1920,1024"/>
    <multi attribute="jtag widget size" size="2" value="338,135"/>
  </global_info>
</session>
