{
	"partitions" : [
		{
			"name" : "Top",
			"pins" : [
				{
					"name" : "leds[3]",
					"strict" : false
				},
				{
					"name" : "leds[2]",
					"strict" : false
				},
				{
					"name" : "leds[1]",
					"strict" : false
				},
				{
					"name" : "leds[0]",
					"strict" : false
				},
				{
					"name" : "o_cols[2]",
					"strict" : false
				},
				{
					"name" : "o_cols[1]",
					"strict" : false
				},
				{
					"name" : "o_cols[0]",
					"strict" : false
				},
				{
					"name" : "o_LED[7]",
					"strict" : false
				},
				{
					"name" : "o_LED[6]",
					"strict" : false
				},
				{
					"name" : "o_LED[5]",
					"strict" : false
				},
				{
					"name" : "o_LED[4]",
					"strict" : false
				},
				{
					"name" : "o_LED[3]",
					"strict" : false
				},
				{
					"name" : "o_LED[2]",
					"strict" : false
				},
				{
					"name" : "o_LED[1]",
					"strict" : false
				},
				{
					"name" : "o_LED[0]",
					"strict" : false
				},
				{
					"name" : "o_ledMUX[2]",
					"strict" : false
				},
				{
					"name" : "o_ledMUX[1]",
					"strict" : false
				},
				{
					"name" : "o_ledMUX[0]",
					"strict" : false
				},
				{
					"name" : "o_LEDsEN[1]",
					"strict" : false
				},
				{
					"name" : "o_LEDsEN[0]",
					"strict" : false
				},
				{
					"name" : "i_rows[2]",
					"strict" : false
				},
				{
					"name" : "i_rows[1]",
					"strict" : false
				},
				{
					"name" : "i_rows[0]",
					"strict" : false
				},
				{
					"name" : "i_clk",
					"strict" : false
				},
				{
					"name" : "altera_reserved_tms",
					"strict" : false
				},
				{
					"name" : "altera_reserved_tck",
					"strict" : false
				},
				{
					"name" : "altera_reserved_tdi",
					"strict" : false
				},
				{
					"name" : "altera_reserved_tdo",
					"strict" : false
				}
			]
		}
	]
}